042-EXneardoor_Mag7p1ramp,1185901209,1185906240
043-EXneardoor_Mag14p2rampBp,1185901209,1185906547
044-EXoppositedoor_Mag14p2rampBp,1185901209,1185907269
045-EXoppositedoor_Mag7p1ramp,1185901209,1185907555
046-EXoppositedoor_Mag7p1ramp_half,1185901209,1185907791
050-EXebay_Mag7p1ramp,1185901209,1185913994
051-EXebay_Mag14p2rampBp,1185901209,1185914270